{
    "key": "group_5b59c937117a8",
    "title": "Decision fields",
    "fields": false,
    "location": [
        [
            {
                "param": "post_type",
                "operator": "==",
                "value": "decision"
            }
        ]
    ],
    "menu_order": 0,
    "position": "normal",
    "style": "default",
    "label_placement": "top",
    "instruction_placement": "label",
    "hide_on_screen": [
        "permalink",
        "the_content",
        "excerpt",
        "discussion",
        "comments",
        "revisions",
        "author",
        "format",
        "page_attributes",
        "featured_image",
        "tags",
        "send-trackbacks"
    ],
    "active": 1,
    "description": "",
    "modified": 1532610871
}